﻿14:41:49.791	D	[                    ]	FimsAppController   	Awake Alloc:True
14:41:49.793	D	[FimsCheck           ]	FimsAppController   	Awake - LaunchID is None
14:41:49.793	D	[FimsCheck           ]	FimsAppController   	Check
14:41:49.922	D	[                    ]	FimsAppController   	OnPause(False)
14:41:49.923	D	[                    ]	FimsAppController   	OnFocus(True)
14:41:54.807	D	[FimsCheck           ]	FimsAppController   	Check
14:41:59.827	D	[FimsCheck           ]	FimsAppController   	Check
14:42:04.676	D	[                    ]	FimsAppController   	OnFocus(False)
14:42:04.812	D	[                    ]	FimsAppController   	Quit
