﻿17:34:19.504	D	[                    ]	FimsAppController   	Awake Alloc:True
17:34:19.506	D	[FimsCheck           ]	FimsAppController   	Awake - LaunchID is None
17:34:19.506	D	[FimsCheck           ]	FimsAppController   	Check
17:34:19.630	D	[                    ]	FimsAppController   	OnPause(False)
17:34:19.631	D	[                    ]	FimsAppController   	OnFocus(True)
17:34:24.523	D	[FimsCheck           ]	FimsAppController   	Check
17:34:29.581	D	[FimsCheck           ]	FimsAppController   	Check
17:34:34.637	D	[FimsCheck           ]	FimsAppController   	Check
17:34:35.533	D	[                    ]	FimsAppController   	OnFocus(False)
17:34:35.629	D	[                    ]	FimsAppController   	Quit
