﻿15:28:37.746	D	[                    ]	FimsAppController   	Awake Alloc:True
15:28:37.757	D	[FimsCheck           ]	FimsAppController   	Awake - LaunchID is None
15:28:37.757	D	[FimsCheck           ]	FimsAppController   	Check
15:28:37.881	D	[                    ]	FimsAppController   	OnPause(False)
15:28:37.881	D	[                    ]	FimsAppController   	OnFocus(True)
15:28:42.771	D	[FimsCheck           ]	FimsAppController   	Check
15:28:47.789	D	[FimsCheck           ]	FimsAppController   	Check
15:28:52.813	D	[FimsCheck           ]	FimsAppController   	Check
15:28:54.572	D	[                    ]	FimsAppController   	OnFocus(False)
15:28:54.665	D	[                    ]	FimsAppController   	Quit
