﻿18:01:14.195	D	[                    ]	FimsAppController   	Awake Alloc:True
18:01:14.197	D	[FimsCheck           ]	FimsAppController   	Awake - LaunchID is None
18:01:14.198	D	[FimsCheck           ]	FimsAppController   	Check
18:01:14.321	D	[                    ]	FimsAppController   	OnPause(False)
18:01:14.322	D	[                    ]	FimsAppController   	OnFocus(True)
18:01:19.216	D	[FimsCheck           ]	FimsAppController   	Check
18:01:24.244	D	[FimsCheck           ]	FimsAppController   	Check
18:01:29.314	D	[FimsCheck           ]	FimsAppController   	Check
18:01:34.390	D	[FimsCheck           ]	FimsAppController   	Check
18:01:39.469	D	[FimsCheck           ]	FimsAppController   	Check
18:01:44.160	D	[                    ]	FimsAppController   	OnFocus(False)
18:01:44.482	D	[                    ]	FimsAppController   	Quit
