﻿21:25:12.937	D	[                    ]	FimsAppController   	Awake Alloc:True
21:25:12.939	D	[FimsCheck           ]	FimsAppController   	Awake - LaunchID is None
21:25:12.939	D	[FimsCheck           ]	FimsAppController   	Check
21:25:13.070	D	[                    ]	FimsAppController   	OnPause(False)
21:25:13.071	D	[                    ]	FimsAppController   	OnFocus(True)
21:25:16.058	D	[                    ]	FimsAppController   	OnFocus(False)
21:25:16.179	D	[                    ]	FimsAppController   	Quit
