﻿15:17:30.094	D	[                    ]	FimsAppController   	Awake Alloc:True
15:17:30.096	D	[FimsCheck           ]	FimsAppController   	Awake - LaunchID is None
15:17:30.103	D	[FimsCheck           ]	FimsAppController   	Check
15:17:30.225	D	[                    ]	FimsAppController   	OnPause(False)
15:17:30.226	D	[                    ]	FimsAppController   	OnFocus(True)
15:17:35.119	D	[FimsCheck           ]	FimsAppController   	Check
15:17:40.151	D	[FimsCheck           ]	FimsAppController   	Check
15:17:45.182	D	[FimsCheck           ]	FimsAppController   	Check
15:17:50.216	D	[FimsCheck           ]	FimsAppController   	Check
15:17:55.244	D	[FimsCheck           ]	FimsAppController   	Check
15:17:56.345	D	[                    ]	FimsAppController   	OnFocus(False)
15:17:56.442	D	[                    ]	FimsAppController   	Quit
