﻿11:51:02.278	D	[                    ]	FimsAppController   	Awake Alloc:True
11:51:02.282	D	[FimsCheck           ]	FimsAppController   	Awake - LaunchID is None
11:51:02.282	D	[FimsCheck           ]	FimsAppController   	Check
11:51:02.447	D	[                    ]	FimsAppController   	OnPause(False)
11:51:02.447	D	[                    ]	FimsAppController   	OnFocus(True)
11:51:07.331	D	[FimsCheck           ]	FimsAppController   	Check
11:51:08.558	D	[                    ]	FimsAppController   	OnFocus(False)
11:51:12.405	D	[FimsCheck           ]	FimsAppController   	Check
11:51:17.474	D	[FimsCheck           ]	FimsAppController   	Check
11:51:22.531	D	[FimsCheck           ]	FimsAppController   	Check
11:51:27.592	D	[FimsCheck           ]	FimsAppController   	Check
11:51:32.647	D	[FimsCheck           ]	FimsAppController   	Check
11:51:37.719	D	[FimsCheck           ]	FimsAppController   	Check
11:51:42.779	D	[FimsCheck           ]	FimsAppController   	Check
11:51:47.850	D	[FimsCheck           ]	FimsAppController   	Check
11:51:48.207	D	[                    ]	FimsAppController   	Quit
