﻿14:35:00.938	D	[                    ]	FimsAppController   	Awake Alloc:True
14:35:00.940	D	[FimsCheck           ]	FimsAppController   	Awake - LaunchID is None
14:35:00.940	D	[FimsCheck           ]	FimsAppController   	Check
14:35:01.063	D	[                    ]	FimsAppController   	OnPause(False)
14:35:01.064	D	[                    ]	FimsAppController   	OnFocus(True)
14:35:05.955	D	[FimsCheck           ]	FimsAppController   	Check
14:35:11.021	D	[FimsCheck           ]	FimsAppController   	Check
14:35:16.040	D	[FimsCheck           ]	FimsAppController   	Check
14:35:20.804	D	[                    ]	FimsAppController   	OnFocus(False)
14:35:20.879	D	[                    ]	FimsAppController   	Quit
