﻿21:08:24.029	D	[                    ]	FimsAppController   	Awake Alloc:True
21:08:24.031	D	[FimsCheck           ]	FimsAppController   	Awake - LaunchID is None
21:08:24.031	D	[FimsCheck           ]	FimsAppController   	Check
21:08:24.151	D	[                    ]	FimsAppController   	OnPause(False)
21:08:24.152	D	[                    ]	FimsAppController   	OnFocus(True)
21:08:29.044	D	[FimsCheck           ]	FimsAppController   	Check
21:08:34.066	D	[FimsCheck           ]	FimsAppController   	Check
21:08:38.823	D	[                    ]	FimsAppController   	OnFocus(False)
21:08:38.921	D	[                    ]	FimsAppController   	Quit
