﻿16:09:05.795	D	[                    ]	FimsAppController   	Awake Alloc:True
16:09:05.797	D	[FimsCheck           ]	FimsAppController   	Awake - LaunchID is None
16:09:05.797	D	[FimsCheck           ]	FimsAppController   	Check
16:09:05.920	D	[                    ]	FimsAppController   	OnPause(False)
16:09:05.921	D	[                    ]	FimsAppController   	OnFocus(True)
16:09:10.812	D	[FimsCheck           ]	FimsAppController   	Check
16:09:13.483	D	[                    ]	FimsAppController   	OnFocus(False)
16:09:13.486	D	[                    ]	FimsAppController   	OnPause(True)
16:09:15.893	D	[FimsCheck           ]	FimsAppController   	Check
16:09:16.629	D	[                    ]	FimsAppController   	OnPause(False)
16:09:16.659	D	[                    ]	FimsAppController   	OnFocus(True)
16:09:20.967	D	[FimsCheck           ]	FimsAppController   	Check
16:09:26.029	D	[FimsCheck           ]	FimsAppController   	Check
16:09:26.089	D	[                    ]	FimsAppController   	OnFocus(False)
16:09:26.200	D	[                    ]	FimsAppController   	Quit
