﻿18:08:22.506	D	[                    ]	FimsAppController   	Awake Alloc:True
18:08:22.508	D	[FimsCheck           ]	FimsAppController   	Awake - LaunchID is None
18:08:22.509	D	[FimsCheck           ]	FimsAppController   	Check
18:08:22.635	D	[                    ]	FimsAppController   	OnPause(False)
18:08:22.635	D	[                    ]	FimsAppController   	OnFocus(True)
18:08:23.447	D	[                    ]	FimsAppController   	OnFocus(False)
18:08:27.525	D	[FimsCheck           ]	FimsAppController   	Check
18:08:30.528	D	[                    ]	FimsAppController   	OnFocus(True)
18:08:32.553	D	[FimsCheck           ]	FimsAppController   	Check
18:08:37.576	D	[FimsCheck           ]	FimsAppController   	Check
18:08:38.978	D	[                    ]	FimsAppController   	OnFocus(False)
18:08:40.312	D	[                    ]	FimsAppController   	OnFocus(True)
18:08:41.088	D	[                    ]	FimsAppController   	OnFocus(False)
18:08:41.218	D	[                    ]	FimsAppController   	Quit
