﻿18:07:51.659	D	[                    ]	FimsAppController   	Awake Alloc:True
18:07:51.661	D	[FimsCheck           ]	FimsAppController   	Awake - LaunchID is None
18:07:51.661	D	[FimsCheck           ]	FimsAppController   	Check
18:07:51.788	D	[                    ]	FimsAppController   	OnPause(False)
18:07:51.789	D	[                    ]	FimsAppController   	OnFocus(True)
18:07:56.676	D	[FimsCheck           ]	FimsAppController   	Check
18:07:57.130	D	[                    ]	FimsAppController   	OnFocus(False)
18:07:57.240	D	[                    ]	FimsAppController   	Quit
