﻿15:56:46.182	D	[                    ]	FimsAppController   	Awake Alloc:True
15:56:46.185	D	[FimsCheck           ]	FimsAppController   	Awake - LaunchID is None
15:56:46.185	D	[FimsCheck           ]	FimsAppController   	Check
15:56:46.361	D	[                    ]	FimsAppController   	OnPause(False)
15:56:46.362	D	[                    ]	FimsAppController   	OnFocus(True)
15:56:48.499	D	[                    ]	FimsAppController   	OnFocus(False)
15:56:48.608	D	[                    ]	FimsAppController   	Quit
