﻿15:43:51.118	D	[                    ]	FimsAppController   	Awake Alloc:True
15:43:51.120	D	[FimsCheck           ]	FimsAppController   	Awake - LaunchID is None
15:43:51.120	D	[FimsCheck           ]	FimsAppController   	Check
15:43:51.253	D	[                    ]	FimsAppController   	OnPause(False)
15:43:51.254	D	[                    ]	FimsAppController   	OnFocus(True)
15:43:56.141	D	[FimsCheck           ]	FimsAppController   	Check
15:44:01.165	D	[FimsCheck           ]	FimsAppController   	Check
15:44:06.190	D	[FimsCheck           ]	FimsAppController   	Check
15:44:11.224	D	[FimsCheck           ]	FimsAppController   	Check
15:44:16.278	D	[FimsCheck           ]	FimsAppController   	Check
15:44:21.460	D	[FimsCheck           ]	FimsAppController   	Check
15:44:26.516	D	[FimsCheck           ]	FimsAppController   	Check
15:44:31.552	D	[FimsCheck           ]	FimsAppController   	Check
15:44:36.586	D	[FimsCheck           ]	FimsAppController   	Check
15:44:41.635	D	[FimsCheck           ]	FimsAppController   	Check
15:44:46.660	D	[FimsCheck           ]	FimsAppController   	Check
15:44:51.723	D	[FimsCheck           ]	FimsAppController   	Check
15:44:56.787	D	[FimsCheck           ]	FimsAppController   	Check
15:45:01.874	D	[FimsCheck           ]	FimsAppController   	Check
15:45:06.961	D	[FimsCheck           ]	FimsAppController   	Check
15:45:12.029	D	[FimsCheck           ]	FimsAppController   	Check
15:45:17.098	D	[FimsCheck           ]	FimsAppController   	Check
15:45:22.159	D	[FimsCheck           ]	FimsAppController   	Check
15:45:27.251	D	[FimsCheck           ]	FimsAppController   	Check
15:45:32.351	D	[FimsCheck           ]	FimsAppController   	Check
15:45:37.439	D	[FimsCheck           ]	FimsAppController   	Check
15:45:42.510	D	[FimsCheck           ]	FimsAppController   	Check
15:45:47.576	D	[FimsCheck           ]	FimsAppController   	Check
15:45:52.640	D	[FimsCheck           ]	FimsAppController   	Check
15:45:57.701	D	[FimsCheck           ]	FimsAppController   	Check
15:46:02.782	D	[FimsCheck           ]	FimsAppController   	Check
15:46:07.859	D	[FimsCheck           ]	FimsAppController   	Check
15:46:12.937	D	[FimsCheck           ]	FimsAppController   	Check
15:46:18.010	D	[FimsCheck           ]	FimsAppController   	Check
15:46:23.087	D	[FimsCheck           ]	FimsAppController   	Check
15:46:28.151	D	[FimsCheck           ]	FimsAppController   	Check
15:46:33.226	D	[FimsCheck           ]	FimsAppController   	Check
15:46:38.305	D	[FimsCheck           ]	FimsAppController   	Check
15:46:43.368	D	[FimsCheck           ]	FimsAppController   	Check
15:46:48.468	D	[FimsCheck           ]	FimsAppController   	Check
15:46:52.796	D	[                    ]	FimsAppController   	OnFocus(False)
15:46:53.530	D	[FimsCheck           ]	FimsAppController   	Check
15:46:53.675	D	[                    ]	FimsAppController   	OnFocus(True)
15:46:58.593	D	[FimsCheck           ]	FimsAppController   	Check
15:47:03.658	D	[FimsCheck           ]	FimsAppController   	Check
15:47:08.725	D	[FimsCheck           ]	FimsAppController   	Check
15:47:13.794	D	[FimsCheck           ]	FimsAppController   	Check
15:47:18.856	D	[FimsCheck           ]	FimsAppController   	Check
15:47:22.454	D	[                    ]	FimsAppController   	OnFocus(False)
15:47:22.462	D	[                    ]	FimsAppController   	OnPause(True)
15:47:23.944	D	[FimsCheck           ]	FimsAppController   	Check
15:47:29.045	D	[FimsCheck           ]	FimsAppController   	Check
15:47:34.163	D	[FimsCheck           ]	FimsAppController   	Check
15:47:39.251	D	[FimsCheck           ]	FimsAppController   	Check
15:47:44.320	D	[FimsCheck           ]	FimsAppController   	Check
15:47:49.481	D	[FimsCheck           ]	FimsAppController   	Check
15:47:54.618	D	[FimsCheck           ]	FimsAppController   	Check
15:47:59.756	D	[FimsCheck           ]	FimsAppController   	Check
15:48:04.917	D	[FimsCheck           ]	FimsAppController   	Check
15:48:10.039	D	[FimsCheck           ]	FimsAppController   	Check
15:48:15.120	D	[FimsCheck           ]	FimsAppController   	Check
15:48:20.178	D	[FimsCheck           ]	FimsAppController   	Check
15:48:25.286	D	[FimsCheck           ]	FimsAppController   	Check
15:48:30.453	D	[FimsCheck           ]	FimsAppController   	Check
15:48:35.605	D	[FimsCheck           ]	FimsAppController   	Check
15:48:40.755	D	[FimsCheck           ]	FimsAppController   	Check
15:48:45.932	D	[FimsCheck           ]	FimsAppController   	Check
15:48:51.086	D	[FimsCheck           ]	FimsAppController   	Check
15:48:56.212	D	[FimsCheck           ]	FimsAppController   	Check
15:49:01.377	D	[FimsCheck           ]	FimsAppController   	Check
15:49:06.528	D	[FimsCheck           ]	FimsAppController   	Check
15:49:11.654	D	[FimsCheck           ]	FimsAppController   	Check
15:49:16.842	D	[FimsCheck           ]	FimsAppController   	Check
15:49:22.022	D	[FimsCheck           ]	FimsAppController   	Check
15:49:27.142	D	[FimsCheck           ]	FimsAppController   	Check
15:49:32.243	D	[FimsCheck           ]	FimsAppController   	Check
15:49:37.391	D	[FimsCheck           ]	FimsAppController   	Check
15:49:42.566	D	[FimsCheck           ]	FimsAppController   	Check
15:49:47.682	D	[FimsCheck           ]	FimsAppController   	Check
15:49:52.810	D	[FimsCheck           ]	FimsAppController   	Check
15:49:57.981	D	[FimsCheck           ]	FimsAppController   	Check
15:50:03.129	D	[FimsCheck           ]	FimsAppController   	Check
15:50:08.253	D	[FimsCheck           ]	FimsAppController   	Check
15:50:13.399	D	[FimsCheck           ]	FimsAppController   	Check
15:50:18.575	D	[FimsCheck           ]	FimsAppController   	Check
15:50:23.685	D	[FimsCheck           ]	FimsAppController   	Check
15:50:28.832	D	[FimsCheck           ]	FimsAppController   	Check
15:50:34.013	D	[FimsCheck           ]	FimsAppController   	Check
15:50:39.166	D	[FimsCheck           ]	FimsAppController   	Check
15:50:44.288	D	[FimsCheck           ]	FimsAppController   	Check
15:50:49.454	D	[FimsCheck           ]	FimsAppController   	Check
15:50:54.622	D	[FimsCheck           ]	FimsAppController   	Check
15:50:59.757	D	[FimsCheck           ]	FimsAppController   	Check
15:51:04.893	D	[FimsCheck           ]	FimsAppController   	Check
15:51:10.047	D	[FimsCheck           ]	FimsAppController   	Check
15:51:15.176	D	[FimsCheck           ]	FimsAppController   	Check
15:51:20.279	D	[FimsCheck           ]	FimsAppController   	Check
15:51:25.435	D	[FimsCheck           ]	FimsAppController   	Check
15:51:30.560	D	[FimsCheck           ]	FimsAppController   	Check
15:51:35.706	D	[FimsCheck           ]	FimsAppController   	Check
15:51:40.830	D	[FimsCheck           ]	FimsAppController   	Check
15:51:46.000	D	[FimsCheck           ]	FimsAppController   	Check
15:51:51.160	D	[FimsCheck           ]	FimsAppController   	Check
15:51:56.264	D	[FimsCheck           ]	FimsAppController   	Check
15:52:01.410	D	[FimsCheck           ]	FimsAppController   	Check
15:52:06.538	D	[FimsCheck           ]	FimsAppController   	Check
15:52:11.705	D	[FimsCheck           ]	FimsAppController   	Check
15:52:16.824	D	[FimsCheck           ]	FimsAppController   	Check
15:52:21.981	D	[FimsCheck           ]	FimsAppController   	Check
15:52:27.158	D	[FimsCheck           ]	FimsAppController   	Check
15:52:32.283	D	[FimsCheck           ]	FimsAppController   	Check
15:52:37.427	D	[FimsCheck           ]	FimsAppController   	Check
15:52:42.609	D	[FimsCheck           ]	FimsAppController   	Check
15:52:45.245	D	[                    ]	FimsAppController   	OnPause(False)
15:52:45.271	D	[                    ]	FimsAppController   	OnFocus(True)
15:52:46.533	D	[                    ]	FimsAppController   	OnFocus(False)
15:52:46.674	D	[                    ]	FimsAppController   	Quit
